{
	"name": "prostota",
	"copyright": "Copyright © 2014, Maaaks",
	"authors": ["Maaaks"],
	"dependencies": {
		"mustache-d": "~master",
		"vibe-d": ">=0.7.11",
	},
	"versions": ["VibeCustomMain"],
	"targetType": "executable",
	"targetPath": ".build",
	"sourcePaths": ["."],
	"excludedSourceFiles": ["content/*"],
	"libs": ["dl"],
}
